<svg id="Icons_Contact_ic-contact-phone" data-name="Icons / Contact / ic-contact-phone" xmlns="http://www.w3.org/2000/svg" xmlns:xlink="http://www.w3.org/1999/xlink" width="24" height="24" viewBox="0 0 24 24">
  <defs>
    <clipPath id="clip-path">
      <rect id="Rectangle_4128" data-name="Rectangle 4128" width="16.853" height="23.6" fill="#f5f5f5"/>
    </clipPath>
  </defs>
  <rect id="Rectangle_193" data-name="Rectangle 193" width="24" height="24" fill="none"/>
  <g id="Group_26886" data-name="Group 26886" transform="translate(3.573 0.2)">
    <g id="Group_26885" data-name="Group 26885" transform="translate(0 0)" clip-path="url(#clip-path)">
      <path id="Path_12726" data-name="Path 12726" d="M8.159,0A8.515,8.515,0,0,1,16.8,7.424a10.675,10.675,0,0,1-.757,5.021,27.364,27.364,0,0,1-3.484,6.343c-1.064,1.49-2.22,2.915-3.356,4.352-.489.618-1.019.6-1.532.006A43.187,43.187,0,0,1,1.607,14.26,15.746,15.746,0,0,1,.087,9.607,8.451,8.451,0,0,1,8.159,0m.251,21.393c.14-.158.239-.257.323-.368.907-1.193,1.855-2.358,2.706-3.588a24.613,24.613,0,0,0,3.224-6.265A7.755,7.755,0,0,0,15.04,7.11,6.7,6.7,0,0,0,5,2.642,6.442,6.442,0,0,0,1.741,9.071a11.766,11.766,0,0,0,1.143,3.862,32.049,32.049,0,0,0,3.643,6.075c.6.8,1.235,1.566,1.884,2.385" transform="translate(0 0)" fill="#fff"/>
      <path id="Path_12727" data-name="Path 12727" d="M13.486,10.121a3.369,3.369,0,1,1-3.347-3.384,3.382,3.382,0,0,1,3.347,3.384m-1.685,0a1.684,1.684,0,1,0-1.7,1.673,1.673,1.673,0,0,0,1.7-1.673" transform="translate(-1.683 -1.681)" fill="#fff"/>
    </g>
  </g>
</svg>
