<svg xmlns="http://www.w3.org/2000/svg" width="14.809" height="14.809" viewBox="0 0 14.809 14.809">
  <path id="Icon_material-person" data-name="Icon material-person" d="M13.4,13.4A3.7,3.7,0,1,0,9.7,9.7,3.7,3.7,0,0,0,13.4,13.4Zm0,1.851c-2.471,0-7.4,1.24-7.4,3.7v1.851H20.809V18.957C20.809,16.5,15.875,15.255,13.4,15.255Z" transform="translate(-6 -6)" fill="#fff"/>
</svg>
